{
    "listAreaEstadistica":
    [
        {"codigo":1,"area":"ESTADISTICAS SEMANALES","fechaCreacion":"20190501"},
        {"codigo":2,"area":"BOLETINES MENSUALES","fechaCreacion":"20190101"},
        {"codigo":3,"area":"BOLETINES TRIMESTRAL","fechaCreacion":"20190101"},
        {"codigo":4,"area":"BOLETINES DEL SECTOR EXTERNO","fechaCreacion":"20190101"},
        {"codigo":5,"area":"ESTADISTICAS POR SECTOR MONETARIO","fechaCreacion":"20190101"},
        {"codigo":6,"area":"ESTADISTICAS POR SECTOR BANCARIO Y FINANCIERO","fechaCreacion":"20190101"},
        {"codigo":7,"area":"ESTADISTICAS POR SECTOR EXTERNO","fechaCreacion":"20190101"},
        {"codigo":8,"area":"ESTADISTICAS POR SECTOR FISCAL","fechaCreacion":"20190101"},
        {"codigo":9,"area":"DEUDA EXTERNA","fechaCreacion":"20190101"},
        {"codigo":10,"area":"RESERVAS INTERNACIONALES","fechaCreacion":"20190101"}
        
    ]
}